#TidyTuesday: James Beard Awards – Julia Whitman
…
It looks like there is quite a bit of overlap between the award categories! Let’s see how we can visualize these overlaps using a heatmap…

We can start by subsetting the data with variables we want to compare. Then, we’ll create indicator variables for each category before merging the five dataframes together.

# A tibble: 16,063 × 30
   subcategory.x     rank.x year.x name  title.x publisher award.x subcategory.y
   <chr>             <chr>   <dbl> <chr> <chr>   <chr>     <chr>   <chr>        
 1 Food Issues and … Nomin…   2024 Kath… At the… (Island … book    <NA>         
 2 Baking and Desse… Winner   2024 Regu… Dark R… (Weldon … book    <NA>         
 3 Emerging Voice A… Winner   2024 Abi … Mayumu… (HarperC… book    <NA>         
 4 Reference, Histo… Nomin…   2024 Davi… The Ar… (Hachett… book    <NA>         
 5 U.S. Foodways     Nomin…   2024 Chri… Made H… (Self-Pu… book    <NA>         
 6 Baking and Desse… Nomin…   2024 Nata… More T… (Artisan… book    <NA>         
 7 Baking and Desse… Nomin…   2024 Nata… More T… (Artisan… book    <NA>         
 8 Baking and Desse… Nomin…   2024 Nata… More T… (Artisan… book    <NA>         
 9 U.S. Foodways     Nomin…   2024 Ryan… Ed Mit… (Ecco)    book    <NA>         
10 Cookbook Hall of… Winner   2024 Pier… <NA>    <NA>      book    <NA>         
# ℹ 16,053 more rows
# ℹ 22 more variables: rank.y <chr>, year.y <dbl>, show <chr>,
#   affiliation.x <chr>, title.y <chr>, award.y <chr>, subcategory.x.x <chr>,
#   rank.x.x <chr>, year.x.x <dbl>, affiliation.y <chr>, title <chr>,
#   award.x.x <chr>, rank.y.y <chr>, year.y.y <dbl>, affiliation <chr>,
#   award.y.y <chr>, subcategory.y.y <chr>, rank <chr>, year <dbl>,
#   restaurant <chr>, city <chr>, award <chr>
…
